Chapter 10 Building an “ipsum-app” | Engineering Production-Grade Shiny Apps
…
remotes::install_github("Thinkr-open/fakir")

This package contains three “datasets”, that are randomly generated when you call the corresponding functions:

fake_base_clients() generates a fake dataset for a ticketing service

fake_sondage_answers() is a fake survey about transportation

fake_visits() is a fake dataset for the visits on a website

library(fakir)
fake_visits(from = "2017-01-01", to = "2017-01-31")

# A tibble: 31 x 8
   timestamp   year month   day  home about  blog
 * <date>     <dbl> <dbl> <int> <int> <int> <int>
 1 2017-01-01  2017     1     1   369   220   404
 2 2017-01-02  2017     1     2   159   250   414
 3 2017-01-03  2017     1     3   436   170   498
 4 2017-01-04  2017     1     4    NA   258   526
 5 2017-01-05  2017     1     5   362    NA   407
 6 2017-01-06  2017     1     6   245   145   576
 7 2017-01-07  2017     1     7    NA    NA   484
 8 2017-01-08  2017     1     8   461   103   441
 9 2017-01-09  2017     1     9   337   113   673
10 2017-01-10  2017     1    10    NA   169   308
# … with 21 more rows, and 1 more variable:
#   contact <int>
…
