Chapter 1 About Successful {shiny} Apps | Engineering Production-Grade Shiny Apps
…
And run the metric for {golem},

# Using this function with{golem}
frame_metric("golem") 

# A tibble: 22 × 3
   n     val                       expl                
   <chr> <chr>                     <chr>               
 1 ARR   4                         Number of times = i…
 2 ATC   <NA>                      Author Test Coverage
 3 DWL   82823                     Number of Downloads 
 4 DEP   33                        Num of Dependencies 
 5 DPD   12                        Number of Reverse-D…
 6 CCP   2.72727272727273          Cyclomatic Complexi…
 7 FLE   4.23440285204991          Average number of c…
 8 FRE   2019-08-05T14:50:02+00:00 Date of First Relea…
 9 LIB   0                         Number of library a…
10 LLE   109                       Number of code line…
# ℹ 12 more rows

And {shiny}

# Using this function with {shiny}
frame_metric("shiny") 

# A tibble: 22 × 3
   n     val                       expl                
   <chr> <chr>                     <chr>               
 1 ARR   14                        Number of times = i…
 2 ATC   46.3623848353278          Author Test Coverage
 3 DWL   18122047                  Number of Downloads 
 4 DEP   35                        Num of Dependencies 
 5 DPD   933                       Number of Reverse-D…
 6 CCP   3.80062794348509          Cyclomatic Complexi…
 7 FLE   2.41493883924699          Average number of c…
 8 FRE   2012-12-01T07:16:17+00:00 Date of First Relea…
 9 LIB   4                         Number of library a…
10 LLE   738                       Number of code line…
# ℹ 12 more rows
…
